{
  "uuid": "ac7d686b-c77a-4292-b50d-b7374de6e84a",
  "shortName": "Divergence;Clock",
  "longName": "Divergence;Clock",
  "companyName": "Masamune_Shadow",
  "versionCode": 3,
  "versionLabel": "3.0",
  "watchapp": {
    "watchface": true
  },
  "appKeys": {},
  "resources": {
    "media": [
      {
        "menuIcon": true,
        "type": "png",
        "name": "IMAGE_MENU_ICON",
        "file": "images/icon.png"
      },
      {
        "type": "png",
        "name": "IMAGE_BACKGROUND",
        "file": "images/Background.png"
      },
      {
        "type": "png",
        "name": "IMAGE_BIG_0",
        "file": "images/0_BIG.png"
      },
      {
        "type": "png",
        "name": "IMAGE_BIG_1",
        "file": "images/1_BIG.png"
      },
      {
        "type": "png",
        "name": "IMAGE_BIG_2",
        "file": "images/2_BIG.png"
      },
      {
        "type": "png",
        "name": "IMAGE_BIG_3",
        "file": "images/3_BIG.png"
      },
      {
        "type": "png",
        "name": "IMAGE_BIG_4",
        "file": "images/4_BIG.png"
      },
      {
        "type": "png",
        "name": "IMAGE_BIG_5",
        "file": "images/5_BIG.png"
      },
      {
        "type": "png",
        "name": "IMAGE_BIG_6",
        "file": "images/6_BIG.png"
      },
      {
        "type": "png",
        "name": "IMAGE_BIG_7",
        "file": "images/7_BIG.png"
      },
      {
        "type": "png",
        "name": "IMAGE_BIG_8",
        "file": "images/8_BIG.png"
      },
      {
        "type": "png",
        "name": "IMAGE_BIG_9",
        "file": "images/9_BIG.png"
      },
      {
        "type": "png",
        "name": "IMAGE_BIG_10",
        "file": "images/Dot_BIG.png"
      },
      {
        "type": "png",
        "name": "IMAGE_SMALL_0",
        "file": "images/0_SMALL.png"
      },
      {
        "type": "png",
        "name": "IMAGE_SMALL_1",
        "file": "images/1_SMALL.png"
      },
      {
        "type": "png",
        "name": "IMAGE_SMALL_2",
        "file": "images/2_SMALL.png"
      },
      {
        "type": "png",
        "name": "IMAGE_SMALL_3",
        "file": "images/3_SMALL.png"
      },
      {
        "type": "png",
        "name": "IMAGE_SMALL_4",
        "file": "images/4_SMALL.png"
      },
      {
        "type": "png",
        "name": "IMAGE_SMALL_5",
        "file": "images/5_SMALL.png"
      },
      {
        "type": "png",
        "name": "IMAGE_SMALL_6",
        "file": "images/6_SMALL.png"
      },
      {
        "type": "png",
        "name": "IMAGE_SMALL_7",
        "file": "images/7_SMALL.png"
      },
      {
        "type": "png",
        "name": "IMAGE_SMALL_8",
        "file": "images/8_SMALL.png"
      },
      {
        "type": "png",
        "name": "IMAGE_SMALL_9",
        "file": "images/9_SMALL.png"
      },
      {
        "type": "png",
        "name": "IMAGE_DAY_0",
        "file": "images/SUN.png"
      },
      {
        "type": "png",
        "name": "IMAGE_DAY_1",
        "file": "images/MON.png"
      },
      {
        "type": "png",
        "name": "IMAGE_DAY_2",
        "file": "images/TUE.png"
      },
      {
        "type": "png",
        "name": "IMAGE_DAY_3",
        "file": "images/WED.png"
      },
      {
        "type": "png",
        "name": "IMAGE_DAY_4",
        "file": "images/THU.png"
      },
      {
        "type": "png",
        "name": "IMAGE_DAY_5",
        "file": "images/FRI.png"
      },
      {
        "type": "png",
        "name": "IMAGE_DAY_6",
        "file": "images/SAT.png"
      }
    ]
  },
  "targetPlatforms": [
    "basalt"
  ],
  "sdkVersion": "3"
}
